{"hash":"e8bbf097b9476e3a58d3d8d4d300f037d6d63275","data":{"posts":{"totalCount":4,"pageInfo":{"totalPages":2,"currentPage":2,"isFirst":false,"isLast":true},"edges":[{"node":{"id":"296df7c68e2235cf52fefebc3ac797ed","title":"Orient Panda","description":"Orient Panda Neo70's neo-Seventies Solar Chronograph Watch","date":"January 16, 2020","path":"/blog/2020/01/16/orient-panda/","tags":[{"id":"orient","title":"orient","path":"/tag/orient/"}]}},{"node":{"id":"81027a06f82a85ccd2eab2f5bba9111e","title":"Orient Panda5","description":"Orient Panda Neo70's neo-Seventies Solar Chronograph Watch","date":"January 16, 2020","path":"/blog/2020/01/16/orient-panda5/","tags":[{"id":"orient","title":"orient","path":"/tag/orient/"}]}}]}},"context":{}}