{"hash":"e8bbf097b9476e3a58d3d8d4d300f037d6d63275","data":{"posts":{"totalCount":4,"pageInfo":{"totalPages":2,"currentPage":1,"isFirst":true,"isLast":false},"edges":[{"node":{"id":"c75b7570c99e1ee2c9ffc72d3b081c10","title":"a java code","description":"java desc","date":"January 25, 2020","path":"/blog/2020/01/25/a-java-code/","tags":[{"id":"java","title":"java","path":"/tag/java/"}]}},{"node":{"id":"7e6e055ef426b2c1cdf8de3837029c3c","title":"a java code4","description":"java desc","date":"January 25, 2020","path":"/blog/2020/01/25/a-java-code4/","tags":[{"id":"java","title":"java","path":"/tag/java/"}]}}]}},"context":{}}